%YAML 1.1
%TAG !u! tag:unity3d.com,2011:
--- !u!54 &1016915454
Rigidbody:
  m_ObjectHideFlags: 0
  m_CorrespondingSourceObject: {fileID: 0}
  m_PrefabInstance: {fileID: 0}
  m_PrefabAsset: {fileID: 0}
  m_GameObject: {fileID: 895204371137721001}
  serializedVersion: 2
  m_Mass: 1
  m_Drag: 0
  m_AngularDrag: 0.05
  m_UseGravity: 0
  m_IsKinematic: 0
  m_Interpolate: 0
  m_Constraints: 0
  m_CollisionDetection: 0
--- !u!65 &1016915449
BoxCollider:
  m_ObjectHideFlags: 0
  m_CorrespondingSourceObject: {fileID: 0}
  m_PrefabInstance: {fileID: 0}
  m_PrefabAsset: {fileID: 0}
  m_GameObject: {fileID: 895204371137721001}
  m_Material: {fileID: 0}
  m_IsTrigger: 0
  m_Enabled: 1
  serializedVersion: 2
  m_Size: {x: 0.039655708, y: 0.1991227, z: 0.02057009}
  m_Center: {x: 0, y: 0.0000000037252903, z: 9.313226e-10}
--- !u!114 &1016915450
MonoBehaviour:
  m_ObjectHideFlags: 0
  m_CorrespondingSourceObject: {fileID: 0}
  m_PrefabInstance: {fileID: 0}
  m_PrefabAsset: {fileID: 0}
  m_GameObject: {fileID: 895204371137721001}
  m_Enabled: 1
  m_EditorHideFlags: 0
  m_Script: {fileID: 11500000, guid: 1f4d8d366d6e42b46995032706b17c4c, type: 3}
  m_Name: 
  m_EditorClassIdentifier: 
--- !u!1001 &9173140536771816352
PrefabInstance:
  m_ObjectHideFlags: 0
  serializedVersion: 2
  m_Modification:
    m_TransformParent: {fileID: 0}
    m_Modifications:
    - target: {fileID: -927199367670048503, guid: 576ee4550c641f64db1bc0b921f75bf7,
        type: 3}
      propertyPath: m_Name
      value: Knife
      objectReference: {fileID: 0}
    - target: {fileID: -927199367670048503, guid: 576ee4550c641f64db1bc0b921f75bf7,
        type: 3}
      propertyPath: m_IsActive
      value: 0
      objectReference: {fileID: 0}
    - target: {fileID: -4216859302048453862, guid: 576ee4550c641f64db1bc0b921f75bf7,
        type: 3}
      propertyPath: m_LocalPosition.x
      value: -33
      objectReference: {fileID: 0}
    - target: {fileID: -4216859302048453862, guid: 576ee4550c641f64db1bc0b921f75bf7,
        type: 3}
      propertyPath: m_LocalPosition.y
      value: 2
      objectReference: {fileID: 0}
    - target: {fileID: -4216859302048453862, guid: 576ee4550c641f64db1bc0b921f75bf7,
        type: 3}
      propertyPath: m_LocalPosition.z
      value: 0
      objectReference: {fileID: 0}
    - target: {fileID: -4216859302048453862, guid: 576ee4550c641f64db1bc0b921f75bf7,
        type: 3}
      propertyPath: m_LocalRotation.x
      value: -0.7071068
      objectReference: {fileID: 0}
    - target: {fileID: -4216859302048453862, guid: 576ee4550c641f64db1bc0b921f75bf7,
        type: 3}
      propertyPath: m_LocalRotation.y
      value: 0
      objectReference: {fileID: 0}
    - target: {fileID: -4216859302048453862, guid: 576ee4550c641f64db1bc0b921f75bf7,
        type: 3}
      propertyPath: m_LocalRotation.z
      value: 0
      objectReference: {fileID: 0}
    - target: {fileID: -4216859302048453862, guid: 576ee4550c641f64db1bc0b921f75bf7,
        type: 3}
      propertyPath: m_LocalRotation.w
      value: 0.7071068
      objectReference: {fileID: 0}
    - target: {fileID: -4216859302048453862, guid: 576ee4550c641f64db1bc0b921f75bf7,
        type: 3}
      propertyPath: m_RootOrder
      value: 0
      objectReference: {fileID: 0}
    - target: {fileID: -4216859302048453862, guid: 576ee4550c641f64db1bc0b921f75bf7,
        type: 3}
      propertyPath: m_LocalEulerAnglesHint.x
      value: -90
      objectReference: {fileID: 0}
    - target: {fileID: -4216859302048453862, guid: 576ee4550c641f64db1bc0b921f75bf7,
        type: 3}
      propertyPath: m_LocalEulerAnglesHint.y
      value: 0
      objectReference: {fileID: 0}
    - target: {fileID: -4216859302048453862, guid: 576ee4550c641f64db1bc0b921f75bf7,
        type: 3}
      propertyPath: m_LocalEulerAnglesHint.z
      value: 0
      objectReference: {fileID: 0}
    - target: {fileID: -4216859302048453862, guid: 576ee4550c641f64db1bc0b921f75bf7,
        type: 3}
      propertyPath: m_LocalScale.x
      value: 3
      objectReference: {fileID: 0}
    - target: {fileID: -4216859302048453862, guid: 576ee4550c641f64db1bc0b921f75bf7,
        type: 3}
      propertyPath: m_LocalScale.y
      value: 3
      objectReference: {fileID: 0}
    - target: {fileID: -4216859302048453862, guid: 576ee4550c641f64db1bc0b921f75bf7,
        type: 3}
      propertyPath: m_LocalScale.z
      value: 3
      objectReference: {fileID: 0}
    m_RemovedComponents: []
  m_SourcePrefab: {fileID: 100100000, guid: 576ee4550c641f64db1bc0b921f75bf7, type: 3}
--- !u!1 &895204371137721001 stripped
GameObject:
  m_CorrespondingSourceObject: {fileID: -927199367670048503, guid: 576ee4550c641f64db1bc0b921f75bf7,
    type: 3}
  m_PrefabInstance: {fileID: 9173140536771816352}
  m_PrefabAsset: {fileID: 0}
--- !u!4 &4194890267341127866 stripped
Transform:
  m_CorrespondingSourceObject: {fileID: -4216859302048453862, guid: 576ee4550c641f64db1bc0b921f75bf7,
    type: 3}
  m_PrefabInstance: {fileID: 9173140536771816352}
  m_PrefabAsset: {fileID: 0}
--- !u!1001 &9173140537013258523
PrefabInstance:
  m_ObjectHideFlags: 0
  serializedVersion: 2
  m_Modification:
    m_TransformParent: {fileID: 4194890267341127866}
    m_Modifications:
    - target: {fileID: 1418895334298486, guid: 22cfde83280f83746836923e3e5ac64a, type: 3}
      propertyPath: m_Name
      value: Drag_01 Warp-strike Noise
      objectReference: {fileID: 0}
    - target: {fileID: 4042546746478394, guid: 22cfde83280f83746836923e3e5ac64a, type: 3}
      propertyPath: m_LocalPosition.x
      value: -0.056666058
      objectReference: {fileID: 0}
    - target: {fileID: 4042546746478394, guid: 22cfde83280f83746836923e3e5ac64a, type: 3}
      propertyPath: m_LocalPosition.y
      value: 0.09300002
      objectReference: {fileID: 0}
    - target: {fileID: 4042546746478394, guid: 22cfde83280f83746836923e3e5ac64a, type: 3}
      propertyPath: m_LocalPosition.z
      value: 0.036666643
      objectReference: {fileID: 0}
    - target: {fileID: 4042546746478394, guid: 22cfde83280f83746836923e3e5ac64a, type: 3}
      propertyPath: m_LocalRotation.x
      value: 0.0019384027
      objectReference: {fileID: 0}
    - target: {fileID: 4042546746478394, guid: 22cfde83280f83746836923e3e5ac64a, type: 3}
      propertyPath: m_LocalRotation.y
      value: 0.00020562811
      objectReference: {fileID: 0}
    - target: {fileID: 4042546746478394, guid: 22cfde83280f83746836923e3e5ac64a, type: 3}
      propertyPath: m_LocalRotation.z
      value: -0.0012021668
      objectReference: {fileID: 0}
    - target: {fileID: 4042546746478394, guid: 22cfde83280f83746836923e3e5ac64a, type: 3}
      propertyPath: m_LocalRotation.w
      value: 0.99999744
      objectReference: {fileID: 0}
    - target: {fileID: 4042546746478394, guid: 22cfde83280f83746836923e3e5ac64a, type: 3}
      propertyPath: m_RootOrder
      value: 0
      objectReference: {fileID: 0}
    - target: {fileID: 4042546746478394, guid: 22cfde83280f83746836923e3e5ac64a, type: 3}
      propertyPath: m_LocalEulerAnglesHint.x
      value: -89.77701
      objectReference: {fileID: 0}
    - target: {fileID: 4042546746478394, guid: 22cfde83280f83746836923e3e5ac64a, type: 3}
      propertyPath: m_LocalEulerAnglesHint.y
      value: 5.986
      objectReference: {fileID: 0}
    - target: {fileID: 4042546746478394, guid: 22cfde83280f83746836923e3e5ac64a, type: 3}
      propertyPath: m_LocalEulerAnglesHint.z
      value: -6.124
      objectReference: {fileID: 0}
    - target: {fileID: 4042546746478394, guid: 22cfde83280f83746836923e3e5ac64a, type: 3}
      propertyPath: m_LocalScale.x
      value: 0.33333337
      objectReference: {fileID: 0}
    - target: {fileID: 4042546746478394, guid: 22cfde83280f83746836923e3e5ac64a, type: 3}
      propertyPath: m_LocalScale.y
      value: 0.33333334
      objectReference: {fileID: 0}
    - target: {fileID: 4042546746478394, guid: 22cfde83280f83746836923e3e5ac64a, type: 3}
      propertyPath: m_LocalScale.z
      value: 0.33333337
      objectReference: {fileID: 0}
    m_RemovedComponents: []
  m_SourcePrefab: {fileID: 100100000, guid: 22cfde83280f83746836923e3e5ac64a, type: 3}
